{
  "profiles": {
    "JoiiBackend": {
      "commandName": "Project",
      "launchBrowser": false,
      "environmentVariables": {
        "ASPNETCORE_ENVIRONMENT": "Development"
      },
      "applicationUrl": "http://0.0.0.0:5000"
    }
  }
}